﻿"id","nombre","referencia","carbo","descripcion","imagen"
"1","Arroz blanco","3/4 taza cocido","30","1","","arroz_blanco.png"
"2","Arroz integral","3/4 taza cocido","30","2","","arroz_integral.png"
"3","Fideos al dente","3/4 taza cocido","30","2","","fideos_al_dente.png"
"4","Fideos integrales al dente","3/4 taza cocido","30","2","","fideos_integrales_al_dente.png"
"5","Avena","6 cuch. soperas o 1/2 taza crudo","30","2","","Avena.png"
"6","Quínoa","1/2 taza","30","2","","quinoa.png"
"7","Fécula de papa","4 cuch. soperas o 1/4 taza crudo","30","0","","fecula_de_papa.png"
"8","Maicena","3 cuch. soperas o 1/4 taza crudo","30","0","","Maicena.png"
"9","Sémola","3 cuch. soperas crudas","30","1","","semola.png"
"10","Maíz hervido","3/4 taza crudo","30","0","","maiz_hervido.png"
"11","Trigo hervido","3/4 taza crudo","30","0","","trigo_hervido.png"
"12","Harina integral","4 cuch. soperas o 1/4 taza  crudo","30","1","","harina_integral.png"
"13","Harina trigo","4 cuch. soperas o 1/4 taza crudo","30","0","","harina_trigo.png"
"14","Pan francés ","1/2 unidad","30","0","","pan_frances.png"
"15","Pan lactal blanco","2-3 rebanadas","30","0","","Pan_lactal_blanco.png"
"16","Pan lactal integral","2 rebanadas","30","1","","Pan_lactal_integral.png"
"17","Pan lactal integral light","4 rebanadas","30","1","","Pan_lactal_integral_light.png"
"18","Pan amasado","1/4 unidad","30","0","","Pan_amasado.png"
"19","Galletitas de Agua","8 unidades","30","0","","Galletitas_de_Agua.png"
"20","Galletitas crackers","7 unidades","30","0","","Galletitas_crackers.png"
"21","Galletitas de Agua light","6 unidades","30","0","","Galletitas_de_Agua_light.png"
"22","Galletitas crackers light","6 unidades","30","0","","Galletitas_crackers_light.png"
"23","Galletitas crackers Integral","7 unidades","30","1","","Galletitas_crackers_Integral.png"
"24","Galletitas de Salvado","6 unidades","30","1","","Galletitas_de_Salvado.png"
"25","Acelga cruda","1 taza","2.6","2","","Acelga_cruda.png"
"26","Acelga cocida","1/2 taza","4","2","","Acelga_cocida.png"
"27","Alcaucil","1 unidad pequeña","6","2","","Alcaucil.png"
"28","Remolacha cruda","1/2 taza","7","0","","Remolacha_cruda.png"
"29","Remolacha cocida","1 taza","7","0","","Remolacha_cocida.png"
"30","Berenjena cocida","1/2 taza","5","2","","Berenjena_cocida.png"
"31","Brócoli cocido","1 taza","6","2","","Brocoli_cocido.png"
"32","Champiñones crudos","1 1/2 taza","4.7","2","","Champiñones_crudos.png"
"33","Champiñones cocidos","3/4 taza","5","2","","Champiñones_cocidos.png"
"34","Coliflor cocida","1 taza","4","2","","Coliflor_cocida.png"
"35","Espárrago cocido","5 unidades regulares","1.6","2","","Esparrago_cocido.png"
"36","Espinaca cocida","1/2 taza","3.3","2","","Espinaca_cocida.png"
"37","Espinaca cruda","1 taza","2.7","2","","Espinaca_cruda.png"
"38","Porotos verdes enlatados","1/2 taza","5","2","","Porotos_verdes_enlatados.png"
"39","Porotos verdes frescos","3/4 taza","5","2","","Porotos_verdes_frescos.png"
"40","Zanahoria cruda","1/2 taza","4","0","","Zanahoria_cruda.png"
"41","Zanahoria cocida","1 taza","4","0","","Zanahoria_cocida.png"
"42","Zapallo italiano crudo","1 taza","2.3","2","","Zapallo_italiano_crudo.png"
"43","Zapallo cocido","1/2 taza","4.3","0","","Zapallo_cocido.png"
"44","Tomate","1 unidad regular","3.8","2","","Tomate.png"
"45","Cebolla cruda","3/4 taza","5.8","2","","Cebolla_cruda.png"
"46","Apio","1 taza","2.5","2","","Apio.png"
"47","Lechuga","1 taza","1.1","2","","Lechuga.png"
"48","Pepino","1 taza","2.1","2","","Pepino.png"
"49","Pimentón","1/2 taza","2.5","2","","Pimenton.png"
"50","Rabanitos","5 unidades","1","2","","Rabanitos.png"
"51","Repollo","1 taza","2.5","2","","Repollo.png"
"52","Ajo","8 dientes","2.4","2","","Ajo.png"
"53","Cerezas","15 unidades","15","2","","Cerezas.png"
"54","Ciruelas","3 unidades","15","2","","Ciruelas.png"
"55","Damasco","3 unidades","15","1","","Damasco.png"
"56","Durazno","1 unidad regular","15","1","","Durazno.png"
"57","Frambuesas","1 taza","15","2","","Frambuesas.png"
"58","Frutillas","1 taza","15","2","","Frutillas.png"
"59","Higos","2 unidades","15","2","","Higos.png"
"60","Kiwi","2 unidades pequeñas","15","1","","Kiwi.png"
"61","Manzana","1 unidad pequeña","15","2","","Manzana.png"
"62","Melón","1 taza","15","0","","Melon.png"
"63","Mora","1/2 taza","15","2","","Mora.png"
"64","Membrillo (fruta)","1 unidad pequeña","15","2","","Membrillo_fruta.png"
"65","Naranja","1 unidad regular","15","1","","Naranja.png"
"66","Mandarinas","3 unidades","15","2","","Mandarinas.png"
"67","Níspero","7 unidades","15","1","","Nispero.png"
"68","Papaya","3 unidades","15","0","","Papaya.png"
"69","Pepino dulce","1 unidad grande","15","2","","Pepino_dulce.png"
"70","Pera","1 unidad pequeña","15","2","","Pera.png"
"71","Piña","3/4 taza","15","0","","Piña.png"
"72","Palta","1/2 unidad","3.3","2","","Palta.png"
"73","Banana","1/2 unidad","15","2","","Banana.png"
"74","Banana madura","1/2 unidad","15","2","","Banana_madura.png"
"75","Sandía","1 taza","15","0","","Sandia.png"
"76","Uvas","10 - 15 granos","15","1","","Uvas.png"
"77","Pasas","20 unidades","15","2","","Pasas.png"
"78","Limón","3 unidades pequeñas","15","2","","Limon.png"
"79","Pomelo","1 unidad","15","2","","Pomelo.png"
"80","Higos secos","2 unidadades","16","2","","Higos_secos.png"
"81","Manzana desecada","7rodelas","15","2","","Manzana_desecada.png"
"82","Leche  descremada","1 taza","10","2","","Leche__descremada.png"
"83","Leche cultivada descremada","1 taza","10","2","","Leche_cultivada_descremada.png"
"84","Leche en polvo 0 a 2% de grasa","1 cucharada sopera colmada","10","2","","Leche_en_polvo_0_a_2_de_grasa.png"
"85","Leche de soja sin azúcar","1 taza","3.6","2","","Leche_de_soja_sin_azucar.png"
"86","Yogurt descremado sin azúcar","1 unidad","10","2","","Yogurt_descremado_sin_azucar.png"
"87","Lomo","2 Trozos de 6 x 6 x 1 cm o 2 trozos pequeños del tamaño de una caja de fósforo.","0","2","","Lomo.png"
"88","Corazón de cuadril","2 Trozos de 6 x 6 x 1 cm o 2 trozos pequeños del tamaño de una caja de fósforo.","0","2","","Corazon_de_cuadril.png"
"89","Bife angosto","2 Trozos de 6 x 6 x 1 cm o 2 trozos pequeños del tamaño de una caja de fósforo.","0","2","","Bife_angosto.png"
"90","Peceto","2 Trozos de 6 x 6 x 1 cm o 2 trozos pequeños del tamaño de una caja de fósforo.","0","2","","Peceto.png"
"91","Nalga de adentro","2 Trozos de 6 x 6 x 1 cm o 2 trozos pequeños del tamaño de una caja de fósforo.","0","2","","Nalga_de_adentro.png"
"92","Bola de lomo","2 Trozos de 6 x 6 x 1 cm o 2 trozos pequeños del tamaño de una caja de fósforo.","0","2","","Bola_de_lomo.png"
"93","Carne molida (tártara)","2 1/2 cucharadas soperas","0","2","","Carne_molida.png"
"94","Pulpa","1 Trozo de 6 x 6 x 1 cm o uno pequeño del tamaño de una caja de fósforo.","0","2","","Pulpa.png"
"95","Pollo  cocido","1 presa (trutro corto o largo)","0","2","","Pollo_cocido.png"
"96","Pechuga de pollo","2 Trozos de 6 x 6 x 1 cm o 2 trozos pequeños del tamaño de una caja de fósforo.","0","2","","Pechuga_de_pollo.png"
"97","Carne de equino","1 Trozo de 6 x 6 x 1 cm o un trozo pequeño del tamaño de una caja de fósforo.","0","2","","Carne_de_equino.png"
"98","Carne de conejo","2 Trozos de 6 x 6 x 1 cm o 2 trozos pequeños del tamaño de una caja de fósforo.","0","2","","Carne_de_conejo.png"
"99","Jamón ","1 tajada","0","2","","Jamon.png"
"100","Carne vegetal (de soja)","5 cucharadas soperas o 1/4 taza","0","2","","Carne_vegetal_de_soja.png"
"101","Atún- al agua","1/2 taza","0","2","","Atun_al_agua.png"
"102","Sardinas- jurel al agua","1/2 taza","0","2","","Sardinas,_jurel_al_agua.png"
"103","Trucha- mero- sierra","Trozo de 10 x 6 x 1 cm","0","2","","Trucha,_mero,_sierra.png"
"104","Salmón","Trozo de 10 x 6 x 1 cm","0","2","","Salmon.png"
"105","Pejerrey- carpa- corvina- congrio- lenguado- merluza- pejegallo- reineta- jurel","Trozo de 10 x 6 x 1 cm","0","2","","Pejerrey_carpa_corvina_congrio_lenguado_merluza_pejegallo_reineta_jurel.png"
"106","Camarón","1/2 taza o 20 unidades","0","2","","Camaron.png"
"107","Ostras","8 unidades","0","2","","Ostras.png"
"108","Almejas","6 unidades","0","2","","Almejas.png"
"109","Agua mineral sin gas","1 vaso","0","2","","Agua_mineral_sin_gas.png"
"110","Agua mineral con gas","1 vaso","0","2","","Agua_mineral_con_gas.png"
"111","Bebidas gaseosas light o zero","1 vaso","0","2","","Bebidas_gaseosas_light_o_zero.png"
"112","Café descafeinado","1 taza","0.18","2","","Cafe_descafeinado.png"
"113","Cerveza","1 vaso (200cc)","7.4","0","","Cerveza.png"
"114","Vino blanco","1 copa pequeña","0.8","2","","Vino_blanco.png"
"115","Vino tinto","1 copa pequeña","1.7","2","","Vino_tinto.png"
"116","Champagne","1 copa","2.1","2","","Champagne.png"
"117","Clara de huevo","3 unidades","0","2","","Clara_de_huevo.png"
"118","Huevo entero","1 unidad","0","2","","Huevo_entero.png"
"119","Huevo de codorniz","2 unidades","0","2","","Huevo_de_codorniz.png"
"120","Arveja crudas o cocidas","1 1/2 taza","30","1","","Arveja_crudas_o_cocidas.png"
"121","Choclo crudo o cocido","1 taza","30","1","","Choclo_crudo_o_cocido.png"
"122","Haba cocida","1 taza","30","2","","Haba_cocida.png"
"123","Papa cruda o cocida","1 unidad regular (150 g) o 2 papas pequeñas del porte de 1 huevo","30","0","","Papa_cruda_o_cocida.png"
"124","Porotos- garbanzos- lentejas cocidos","3/4 taza","30","2","","Porotos_garbanzos_lentejas_cocidos.png"
"125","Aceite de oliva- canola- palta","4 cucharaditas","0","2","","Aceite_de_oliva_canola_palta.png"
"126","Margarina 0% grasas saturadas y trans","4 cucharaditas","0","2","","Margarina_0_grasas_saturadas_y_trans.png"
"127","Almendra","26 unidades","5","2","","Almendra.png"
"128","Avellana","50 unidades","5","2","","Avellana.png"
"129","Maní","30 unidades","5","2","","Mani.png"
"130","Nuez","5 unidades","5","2","","Nuez.png"
"131","Pistacho","40 unidades","5","2","","Pistacho.png"
"132","Aceituna","11 unidades","5","2","","Aceituna.png"
"133","Palta","3 cucharadas soperas","5","2","","Palta.png"
"134","Pan tostado","1 Unidad","9","0","","Pan_tostado.png"
"135","Papa hervida","Plato mediano","200","1","","Papa_hervida.png"
"136","Papas fritas","Guarnición","60","0","","Papas_fritas.png"
"137","Sushi","Pieza grande (40g)","40.5","2","","Sushi.png"
"138","Zanahoria hervida","Unidad mediana (70g)","100","0","","Zanahoria_hervida.png"
"139","Bebida energética","Lata de 250cc","240","0","","Bebida_energetica.png"
"140","Bebida refrescante tipo cola","Vaso de 200cc","200","0","","Bebida_refrescante_tipo_cola.png"
"141","Jugo de fruta comercial","Un vaso (200cc)","200","1","","Jugo_de_fruta_comercial.png"
"142","Caramelo ","Unidad (5g)","3","0","","Caramelo.png"
"143","Chocolate blanco ","Tableta 70 individual (30g)","29","0","","Chocolate_blanco.png"
"144","Chocolate con leche","Tableta 70 individual (30g)","29","0","","Chocolate_con_leche.png"
"145","Chocolate negro","Tableta 70 individual (30g)","30","2","","Chocolate_negro.png"
"146","Barrita energética (de cereales)","Unidad (25g)","25","0","","Barrita_energetica_de_cereales.png"
"147","Bizcochuelo","Unidad comercial individual (25g)","25","1","","Bizcochuelo.png"
"148","Mermelada","Cucharada sopera (25g)","25","1","","Mermelada.png"
"149","Miel","Cucharada sopera (18g)","17","0","","Miel.png"
"150","Pasa de uva ","Puñado, con mano cerrada (20g)","19","1","","Pasa_de_uva.png"
"151","Helado de crema","Bola mediana (100g)","100","1","","Helado_de_crema.png"
"152","Helado de agua","Unidad (100ml)","100","1","","Helado_de_agua.png"
"153","Leche condensada","Cucharada sopera (20g)","20","1","","Leche_condensada.png"
"154","Dulce de Membrillo","100 gramos","62","1","","Dulce_de_Membrillo.png""
